"Paper Title", "Folder Name", "Year", "Google Cites", "Scopus Cites"
"Artificial Neural Networks and Machine Learning – ICANN 2013","ICANN","","0","1"
"Artificial Neural Networks and Machine Learning – ICANN 2011","ICANN","2011","9","1"
"Artificial Neural Networks and Machine Learning – ICANN 2011","ICANN","2011","9","1"
"Artificial Neural Networks and Machine Learning – ICANN 2011","ICANN","2011","9","1"
"Artificial Neural Networks and Machine Learning – ICANN 2011","ICANN","2011","9","1"
"Image receptive fields for artificial neural networks","ICANN","2014","4","4"
"Homeostasis causes hallucinations in a hierarchical generative model of the visual cortex: the Charles Bonnet Syndrome","ICANN","2011","0","???"
"LNCS 7552 - Temporal Patterns in Artificial Reaction Networks","ICANN","2012","2","???"
"The capacity and the versatility of the pulse coupled neural network in the image matching","ICANN","2012","0","0"
"Some things psychopathologies can tell us about consciousness","ICANN","2012","2","0"
"Biologically Plausible Multi-dimensional","ICANN","2001","311","???"
"Bidirectional activation-based neural network learning algorithm","ICANN","2013","4","???"
"Novel Feature Selection and Kernel-Based Value Approximation Method for Reinforcement Learning","ICANN","2013","2","???"
"Memory trace in spiking neural networks","ICANN","2013","0","???"
"Attention-Gated Reinforcement Learning in Neural Networks—A Unified View","ICANN","2013","1","0"
"Sparseness controls the receptive field characteristics of V4 neurons: Generation of curvature selectivity in V4","ICANN","2013","2","1"
"Dynamic cortex memory: Enhancing recurrent neural networks for gradient-based sequence learning","ICANN","2014","7","2"
"Vehicle Plate Recognition Using Improved Neocognitron Neural Network","ICANN","2013","1","???"
"Regularized Recurrent Neural Networks for Data Efficient Dual-Task Learning","ICANN","2014","3","???"
"Structured Prediction for Object Detection in Deep Neural Networks","ICANN","2014","1","0"
"How Visual Attention und Suppression Facilitate Object Recognition?","ICANN","2001","142","???"
"Self-generated off-line memory reprocessing strongly improves generalization in a hierarchical recurrent neural network","ICANN","2014","0","0"
"Analysis of Neural Circuit for Visual Attention Using Lognormally Distributed Input","ICANN","2014","0","???"
"Learning to look: A dynamic neural fields architecture for gaze shift generation","ICANN","2014","2","0"
"Artificial Neural Networks and Machine Learning – ICANN 2013","ICANN","","0","1"
"Artificial Neural Networks and Machine Learning – ICANN 2013","ICANN","","0","1"
